…
    ```sql
    WITH percentile_trip_distance AS (
        SELECT approx_quantile(trip_distance, 0.9) AS p90_trip_distance
        FROM unique_taxi_trips
    )
    ```
    * Then, filter the trips that exceeded this threshold:
    ```sql
    SELECT *
    FROM unique_taxi_trips
    WHERE trip_distance > (SELECT p90_trip_distance FROM percentile_trip_distance);
    ```
    * Example of results
    ```sql
        ┌───────────┬──────────────────────┬───────────────────────┬────────────────┬────────────────┬───────────────┐
        │ vendor_id │ tpep_pickup_datetime │ tpep_dropoff_datetime │ pu_location_id │ do_location_id │ trip_distance │
        │   int32   │       varchar        │        varchar        │     int32      │     int32      │    double     │
        ├───────────┼──────────────────────┼───────────────────────┼────────────────┼────────────────┼───────────────┤
        │         1 │ 2023-01-01 00:02:29  │ 2023-01-01 00:29:57   │            132 │            141 │          20.2 │
        │         1 │ 2023-01-01 00:02:47  │ 2023-01-01 00:24:21   │            138 │            144 │           9.1 │
        │         1 │ 2023-01-01 00:03:00  │ 2023-01-01 00:33:19   │            161 │            228 │          13.8 │
        │         1 │ 2023-01-01 00:04:45  │ 2023-01-01 00:45:38   │            161 │            228 │           9.7 │
        │         1 │ 2023-01-01 00:04:54  │ 2023-01-01 00:22:57   │            138 │            244 │           9.4 │
        │         1 │ 2023-01-01 00:05:17  │ 2023-01-01 00:27:47   │            137 │            130 │          13.2 │
        │         1 │ 2023-01-01 00:05:21  │ 2023-01-01 00:52:00   │            143 │            188 │          10.0 │
        │         1 │ 2023-01-01 00:07:31  │ 2023-01-01 00:35:46   │            132 │             22 │          19.0 │
        │         1 │ 2023-01-01 00:08:29  │ 2023-01-01 00:25:41   │            141 │            129 │          10.5 │
        │         1 │ 2023-01-01 00:09:02  │ 2023-01-01 00:31:45   │            132 │            233 │          16.7 │
        │         1 │ 2023-01-01 00:11:44  │ 2023-01-01 00:33:39   │            132 │            171 │          12.7 │
        │         1 │ 2023-01-01 00:11:49  │ 2023-01-01 00:40:04   │            132 │            107 │          17.2 │
        │         1 │ 2023-01-01 00:13:30  │ 2023-01-01 00:44:00   │            132 │            116 │          17.8 │
        │         1 │ 2023-01-01 00:14:07  │ 2023-01-01 00:53:40   │            249 │            243 │          10.9 │
        │         1 │ 2023-01-01 00:14:36  │ 2023-01-01 00:27:40   │            138 │            140 │           9.0 │
        │         1 │ 2023-01-01 00:15:05  │ 2023-01-01 00:44:14   │            132 │            188 │           9.9 │
        │         1 │ 2023-01-01 00:16:10  │ 2023-01-01 00:41:26   │            132 │            262 │          19.4 │
        │         1 │ 2023-01-01 00:16:44  │ 2023-01-01 00:42:40   │            162 │            208 │          11.7 │
        │         1 │ 2023-01-01 00:17:10  │ 2023-01-01 00:42:40   │            236 │             97 │           9.1 │
        │         1 │ 2023-01-01 00:18:16  │ 2023-01-01 01:00:37   │            132 │            143 │          18.0 │
        │         · │          ·           │          ·            │             ·  │              · │            ·  │
        │         · │          ·           │          ·            │             ·  │              · │            ·  │
        │         · │          ·           │          ·            │             ·  │              · │            ·  │
        │         6 │ 2024-05-30 06:05:55  │ 2024-05-30 06:05:28   │            265 │             42 │         10.08 │
        │         6 │ 2024-05-30 06:05:59  │ 2024-05-30 06:05:26   │            265 │             68 │         14.93 │
        │         6 │ 2024-05-30 07:05:13  │ 2024-05-30 07:05:29   │            265 │            107 │          9.28 │
        │         6 │ 2024-05-30 10:05:08  │ 2024-05-30 10:05:50   │            265 │            218 │          9.07 │
        │         6 │ 2024-05-30 21:05:10  │ 2024-05-30 22:05:49   │            265 │            215 │         14.55 │
        │         6 │ 2024-05-30 22:05:00  │ 2024-05-30 23:05:38   │            265 │            202 │         16.43 │
        │         6 │ 2024-05-30 23:05:44  │ 2024-05-31 01:05:48   │            265 │            235 │          9.26 │
        │         6 │ 2024-05-31 01:05:33  │ 2024-05-31 01:05:53   │            265 │            137 │          13.9 │
        │         6 │ 2024-05-31 02:05:16  │ 2024-05-31 03:05:12   │            265 │            218 │         16.87 │
        │         6 │ 2024-05-31 04:05:01  │ 2024-05-31 05:05:25   │            265 │            114 │         16.49 │
        │         6 │ 2024-05-31 07:05:31  │ 2024-05-31 07:05:41   │            265 │             41 │          13.1 │
        │         6 │ 2024-05-31 12:05:59  │ 2024-05-31 13:05:41   │            265 │             41 │         10.78 │
        │         6 │ 2024-05-31 14:05:10  │ 2024-05-31 15:05:54   │            265 │            197 │         10.31 │
        │         6 │ 2024-05-31 14:05:35  │ 2024-05-31 15:05:40   │            265 │             29 │         19.24 │
        │         6 │ 2024-05-31 15:05:13  │ 2024-05-31 16:05:37   │            265 │            210 │         19.62 │
        │         6 │ 2024-06-01 01:06:31  │ 2024-06-01 02:06:29   │            265 │            222 │         15.47 │
        │         6 │ 2024-06-01 10:06:12  │ 2024-06-01 11:06:19   │            265 │            229 │         12.34 │
        │         6 │ 2024-06-02 08:06:36  │ 2024-06-02 09:06:02   │            265 │            116 │         19.17 │
        │         6 │ 2024-06-03 08:06:56  │ 2024-06-03 09:06:30   │            265 │            170 │         21.64 │
        │         6 │ 2024-06-03 14:06:47  │ 2024-06-03 15:06:12   │            265 │            124 │         12.88 │
        ├───────────┴──────────────────────┴───────────────────────┴────────────────┴────────────────┴───────────────┤
        │ 6122942 rows (40 shown)                                                                          6 columns │
…
